-- Merging decision tree log ---
manifest
ADDED from /Users/hannaholukoye/AndroidGitFolder/journal-app/JournalApp/app/src/main/AndroidManifest.xml:2:1-28:12
INJECTED from /Users/hannaholukoye/AndroidGitFolder/journal-app/JournalApp/app/src/main/AndroidManifest.xml:2:1-28:12
INJECTED from /Users/hannaholukoye/AndroidGitFolder/journal-app/JournalApp/app/src/main/AndroidManifest.xml:2:1-28:12
INJECTED from /Users/hannaholukoye/AndroidGitFolder/journal-app/JournalApp/app/src/main/AndroidManifest.xml:2:1-28:12
MERGED from [com.android.support:design:27.1.1] /Users/hannaholukoye/.gradle/caches/transforms-1/files-1.1/design-27.1.1.aar/abc849a0845a1200f0300b1afb2017ac/AndroidManifest.xml:17:1-22:12
MERGED from [com.android.support:appcompat-v7:27.1.1] /Users/hannaholukoye/.gradle/caches/transforms-1/files-1.1/appcompat-v7-27.1.1.aar/a3ad55ddf1bf5b467182121755991b4d/AndroidManifest.xml:17:1-22:12
MERGED from [com.android.support.constraint:constraint-layout:1.1.2] /Users/hannaholukoye/.gradle/caches/transforms-1/files-1.1/constraint-layout-1.1.2.aar/b9adf07b00a76261fd80413463c437eb/AndroidManifest.xml:2:1-11:12
MERGED from [com.google.android.gms:play-services-auth:15.0.1] /Users/hannaholukoye/.gradle/caches/transforms-1/files-1.1/play-services-auth-15.0.1.aar/01fb7e9460f138a0766b3b42a62e0573/AndroidManifest.xml:17:1-39:12
MERGED from [com.google.firebase:firebase-firestore:17.0.1] /Users/hannaholukoye/.gradle/caches/transforms-1/files-1.1/firebase-firestore-17.0.1.aar/dbab6afe60eb9064e9cd480b0d862733/AndroidManifest.xml:2:1-10:12
MERGED from [com.google.android.gms:play-services-auth-api-phone:15.0.1] /Users/hannaholukoye/.gradle/caches/transforms-1/files-1.1/play-services-auth-api-phone-15.0.1.aar/55c1afdcd69ba3790050b9e9cec3944b/AndroidManifest.xml:2:1-7:12
MERGED from [com.google.android.gms:play-services-auth-base:15.0.1] /Users/hannaholukoye/.gradle/caches/transforms-1/files-1.1/play-services-auth-base-15.0.1.aar/a54227fae5572977270e86a0437ea0a0/AndroidManifest.xml:2:1-7:12
MERGED from [com.google.android.gms:play-services-base:15.0.1] /Users/hannaholukoye/.gradle/caches/transforms-1/files-1.1/play-services-base-15.0.1.aar/37f6cef7684790416f0e5321234b1636/AndroidManifest.xml:17:1-29:12
MERGED from [com.google.firebase:firebase-common:16.0.0] /Users/hannaholukoye/.gradle/caches/transforms-1/files-1.1/firebase-common-16.0.0.aar/1179f566e3cf3d47cd465b885a569d5e/AndroidManifest.xml:2:1-16:12
MERGED from [com.google.android.gms:play-services-tasks:15.0.1] /Users/hannaholukoye/.gradle/caches/transforms-1/files-1.1/play-services-tasks-15.0.1.aar/a7fd578660e927f669bfffc0765d127f/AndroidManifest.xml:2:1-9:12
MERGED from [com.google.firebase:firebase-database-collection:15.0.1] /Users/hannaholukoye/.gradle/caches/transforms-1/files-1.1/firebase-database-collection-15.0.1.aar/e511fdde335e57aa2e9db8dfa468ec21/AndroidManifest.xml:2:1-8:12
MERGED from [com.google.android.gms:play-services-basement:15.0.1] /Users/hannaholukoye/.gradle/caches/transforms-1/files-1.1/play-services-basement-15.0.1.aar/d15cb4ab4d7a4eef55c2d15eb031e277/AndroidManifest.xml:17:1-28:12
MERGED from [com.android.support:support-v4:27.1.1] /Users/hannaholukoye/.gradle/caches/transforms-1/files-1.1/support-v4-27.1.1.aar/b8f6f5fa3f792d53968ef9decb79d3dc/AndroidManifest.xml:17:1-22:12
MERGED from [com.android.support:support-media-compat:27.1.1] /Users/hannaholukoye/.gradle/caches/transforms-1/files-1.1/support-media-compat-27.1.1.aar/5c80d8d92c819e3ab3a5d6374b8e74fa/AndroidManifest.xml:17:1-22:12
MERGED from [com.android.support:recyclerview-v7:27.1.1] /Users/hannaholukoye/.gradle/caches/transforms-1/files-1.1/recyclerview-v7-27.1.1.aar/5ded74659427b5b602629b118d0b82dd/AndroidManifest.xml:17:1-22:12
MERGED from [android.arch.persistence.room:runtime:1.0.0] /Users/hannaholukoye/.gradle/caches/transforms-1/files-1.1/runtime-1.0.0.aar/2ef8ee17a43daaf312b9f7af505930ff/AndroidManifest.xml:17:1-24:12
MERGED from [android.arch.lifecycle:extensions:1.1.0] /Users/hannaholukoye/.gradle/caches/transforms-1/files-1.1/extensions-1.1.0.aar/48736175c2002a94417b673432833f08/AndroidManifest.xml:17:1-30:12
MERGED from [com.android.support:animated-vector-drawable:27.1.1] /Users/hannaholukoye/.gradle/caches/transforms-1/files-1.1/animated-vector-drawable-27.1.1.aar/8b5b66ed78a766b4b8de74a626c2c8b5/AndroidManifest.xml:17:1-22:12
MERGED from [com.android.support:support-vector-drawable:27.1.1] /Users/hannaholukoye/.gradle/caches/transforms-1/files-1.1/support-vector-drawable-27.1.1.aar/9de18deab501a2e37c88186c3a1d3e0e/AndroidManifest.xml:17:1-22:12
MERGED from [com.android.support:support-fragment:27.1.1] /Users/hannaholukoye/.gradle/caches/transforms-1/files-1.1/support-fragment-27.1.1.aar/43ff8bcdfc4c5b69a7f11571c6d7639f/AndroidManifest.xml:17:1-22:12
MERGED from [com.android.support:support-core-ui:27.1.1] /Users/hannaholukoye/.gradle/caches/transforms-1/files-1.1/support-core-ui-27.1.1.aar/dd21a357017af84dae4b1051fd59f738/AndroidManifest.xml:17:1-22:12
MERGED from [com.android.support:transition:27.1.1] /Users/hannaholukoye/.gradle/caches/transforms-1/files-1.1/transition-27.1.1.aar/8e8a3734b71e6d8a724813bcf16c8c41/AndroidManifest.xml:17:1-22:12
MERGED from [com.android.support:support-core-utils:27.1.1] /Users/hannaholukoye/.gradle/caches/transforms-1/files-1.1/support-core-utils-27.1.1.aar/b62deb47744dd5840a9c1449109a3bb5/AndroidManifest.xml:17:1-22:12
MERGED from [com.android.support:support-compat:27.1.1] /Users/hannaholukoye/.gradle/caches/transforms-1/files-1.1/support-compat-27.1.1.aar/6a9baa13b8ffa14cff370b2e7830f86a/AndroidManifest.xml:17:1-22:12
MERGED from [android.arch.persistence:db-framework:1.0.0] /Users/hannaholukoye/.gradle/caches/transforms-1/files-1.1/db-framework-1.0.0.aar/fa735d58da5678e1059cd5b2e2f33b9d/AndroidManifest.xml:17:1-24:12
MERGED from [android.arch.persistence:db:1.0.0] /Users/hannaholukoye/.gradle/caches/transforms-1/files-1.1/db-1.0.0.aar/d88aa5de5d297a223960e7874b838247/AndroidManifest.xml:17:1-24:12
MERGED from [android.arch.lifecycle:livedata:1.1.0] /Users/hannaholukoye/.gradle/caches/transforms-1/files-1.1/livedata-1.1.0.aar/6b92ba74bd680bd159c20492fe4aceb0/AndroidManifest.xml:17:1-22:12
MERGED from [android.arch.lifecycle:livedata-core:1.1.0] /Users/hannaholukoye/.gradle/caches/transforms-1/files-1.1/livedata-core-1.1.0.aar/0e1d54864e5940583fbc5d6ab5de288b/AndroidManifest.xml:17:1-22:12
MERGED from [android.arch.lifecycle:runtime:1.1.0] /Users/hannaholukoye/.gradle/caches/transforms-1/files-1.1/runtime-1.1.0.aar/f0f91a69991e2528f69db7253b38d165/AndroidManifest.xml:17:1-22:12
MERGED from [android.arch.core:runtime:1.1.0] /Users/hannaholukoye/.gradle/caches/transforms-1/files-1.1/runtime-1.1.0.aar/83262017bb8fa109aee5c825e6f4b26a/AndroidManifest.xml:17:1-22:12
MERGED from [android.arch.lifecycle:viewmodel:1.1.0] /Users/hannaholukoye/.gradle/caches/transforms-1/files-1.1/viewmodel-1.1.0.aar/e15183b4c5ff99fc0dbd56dd1fc8e555/AndroidManifest.xml:17:1-22:12
MERGED from [com.google.firebase:protolite-well-known-types:15.0.0] /Users/hannaholukoye/.gradle/caches/transforms-1/files-1.1/protolite-well-known-types-15.0.0.aar/6c5c25843b67447235d5fdd522d17cf4/AndroidManifest.xml:2:1-11:12
INJECTED from /Users/hannaholukoye/AndroidGitFolder/journal-app/JournalApp/app/src/main/AndroidManifest.xml:2:1-28:12
INJECTED from /Users/hannaholukoye/AndroidGitFolder/journal-app/JournalApp/app/src/main/AndroidManifest.xml:2:1-28:12
INJECTED from /Users/hannaholukoye/AndroidGitFolder/journal-app/JournalApp/app/src/main/AndroidManifest.xml:2:1-28:12
	package
		ADDED from /Users/hannaholukoye/AndroidGitFolder/journal-app/JournalApp/app/src/main/AndroidManifest.xml:3:5-44
		INJECTED from /Users/hannaholukoye/AndroidGitFolder/journal-app/JournalApp/app/src/main/AndroidManifest.xml
		INJECTED from /Users/hannaholukoye/AndroidGitFolder/journal-app/JournalApp/app/src/main/AndroidManifest.xml
	android:versionName
		INJECTED from /Users/hannaholukoye/AndroidGitFolder/journal-app/JournalApp/app/src/main/AndroidManifest.xml
		ADDED from /Users/hannaholukoye/AndroidGitFolder/journal-app/JournalApp/app/src/main/AndroidManifest.xml:2:1-28:12
		INJECTED from /Users/hannaholukoye/AndroidGitFolder/journal-app/JournalApp/app/src/main/AndroidManifest.xml
	android:versionCode
		INJECTED from /Users/hannaholukoye/AndroidGitFolder/journal-app/JournalApp/app/src/main/AndroidManifest.xml
		ADDED from /Users/hannaholukoye/AndroidGitFolder/journal-app/JournalApp/app/src/main/AndroidManifest.xml:2:1-28:12
		INJECTED from /Users/hannaholukoye/AndroidGitFolder/journal-app/JournalApp/app/src/main/AndroidManifest.xml
	xmlns:android
		ADDED from /Users/hannaholukoye/AndroidGitFolder/journal-app/JournalApp/app/src/main/AndroidManifest.xml:2:11-69
uses-permission#android.permission.INTERNET
ADDED from /Users/hannaholukoye/AndroidGitFolder/journal-app/JournalApp/app/src/main/AndroidManifest.xml:5:5-67
	android:name
		ADDED from /Users/hannaholukoye/AndroidGitFolder/journal-app/JournalApp/app/src/main/AndroidManifest.xml:5:22-64
application
ADDED from /Users/hannaholukoye/AndroidGitFolder/journal-app/JournalApp/app/src/main/AndroidManifest.xml:7:5-26:19
MERGED from [com.android.support.constraint:constraint-layout:1.1.2] /Users/hannaholukoye/.gradle/caches/transforms-1/files-1.1/constraint-layout-1.1.2.aar/b9adf07b00a76261fd80413463c437eb/AndroidManifest.xml:9:5-20
MERGED from [com.android.support.constraint:constraint-layout:1.1.2] /Users/hannaholukoye/.gradle/caches/transforms-1/files-1.1/constraint-layout-1.1.2.aar/b9adf07b00a76261fd80413463c437eb/AndroidManifest.xml:9:5-20
MERGED from [com.google.android.gms:play-services-auth:15.0.1] /Users/hannaholukoye/.gradle/caches/transforms-1/files-1.1/play-services-auth-15.0.1.aar/01fb7e9460f138a0766b3b42a62e0573/AndroidManifest.xml:22:5-37:19
MERGED from [com.google.android.gms:play-services-auth:15.0.1] /Users/hannaholukoye/.gradle/caches/transforms-1/files-1.1/play-services-auth-15.0.1.aar/01fb7e9460f138a0766b3b42a62e0573/AndroidManifest.xml:22:5-37:19
MERGED from [com.google.android.gms:play-services-base:15.0.1] /Users/hannaholukoye/.gradle/caches/transforms-1/files-1.1/play-services-base-15.0.1.aar/37f6cef7684790416f0e5321234b1636/AndroidManifest.xml:22:5-27:19
MERGED from [com.google.android.gms:play-services-base:15.0.1] /Users/hannaholukoye/.gradle/caches/transforms-1/files-1.1/play-services-base-15.0.1.aar/37f6cef7684790416f0e5321234b1636/AndroidManifest.xml:22:5-27:19
MERGED from [com.google.firebase:firebase-common:16.0.0] /Users/hannaholukoye/.gradle/caches/transforms-1/files-1.1/firebase-common-16.0.0.aar/1179f566e3cf3d47cd465b885a569d5e/AndroidManifest.xml:8:5-14:19
MERGED from [com.google.firebase:firebase-common:16.0.0] /Users/hannaholukoye/.gradle/caches/transforms-1/files-1.1/firebase-common-16.0.0.aar/1179f566e3cf3d47cd465b885a569d5e/AndroidManifest.xml:8:5-14:19
MERGED from [com.google.android.gms:play-services-tasks:15.0.1] /Users/hannaholukoye/.gradle/caches/transforms-1/files-1.1/play-services-tasks-15.0.1.aar/a7fd578660e927f669bfffc0765d127f/AndroidManifest.xml:7:5-20
MERGED from [com.google.android.gms:play-services-tasks:15.0.1] /Users/hannaholukoye/.gradle/caches/transforms-1/files-1.1/play-services-tasks-15.0.1.aar/a7fd578660e927f669bfffc0765d127f/AndroidManifest.xml:7:5-20
MERGED from [com.google.android.gms:play-services-basement:15.0.1] /Users/hannaholukoye/.gradle/caches/transforms-1/files-1.1/play-services-basement-15.0.1.aar/d15cb4ab4d7a4eef55c2d15eb031e277/AndroidManifest.xml:22:5-26:19
MERGED from [com.google.android.gms:play-services-basement:15.0.1] /Users/hannaholukoye/.gradle/caches/transforms-1/files-1.1/play-services-basement-15.0.1.aar/d15cb4ab4d7a4eef55c2d15eb031e277/AndroidManifest.xml:22:5-26:19
MERGED from [android.arch.lifecycle:extensions:1.1.0] /Users/hannaholukoye/.gradle/caches/transforms-1/files-1.1/extensions-1.1.0.aar/48736175c2002a94417b673432833f08/AndroidManifest.xml:22:5-28:19
MERGED from [android.arch.lifecycle:extensions:1.1.0] /Users/hannaholukoye/.gradle/caches/transforms-1/files-1.1/extensions-1.1.0.aar/48736175c2002a94417b673432833f08/AndroidManifest.xml:22:5-28:19
	android:supportsRtl
		ADDED from /Users/hannaholukoye/AndroidGitFolder/journal-app/JournalApp/app/src/main/AndroidManifest.xml:12:9-35
	android:label
		ADDED from /Users/hannaholukoye/AndroidGitFolder/journal-app/JournalApp/app/src/main/AndroidManifest.xml:10:9-41
	android:roundIcon
		ADDED from /Users/hannaholukoye/AndroidGitFolder/journal-app/JournalApp/app/src/main/AndroidManifest.xml:11:9-46
	android:icon
		ADDED from /Users/hannaholukoye/AndroidGitFolder/journal-app/JournalApp/app/src/main/AndroidManifest.xml:9:9-41
	android:allowBackup
		ADDED from /Users/hannaholukoye/AndroidGitFolder/journal-app/JournalApp/app/src/main/AndroidManifest.xml:8:9-35
	android:theme
		ADDED from /Users/hannaholukoye/AndroidGitFolder/journal-app/JournalApp/app/src/main/AndroidManifest.xml:13:9-40
activity#com.olukoye.hannah.journalapp.LoginActivity
ADDED from /Users/hannaholukoye/AndroidGitFolder/journal-app/JournalApp/app/src/main/AndroidManifest.xml:14:9-20:20
	android:name
		ADDED from /Users/hannaholukoye/AndroidGitFolder/journal-app/JournalApp/app/src/main/AndroidManifest.xml:14:19-48
intent-filter#android.intent.action.MAIN+android.intent.category.LAUNCHER
ADDED from /Users/hannaholukoye/AndroidGitFolder/journal-app/JournalApp/app/src/main/AndroidManifest.xml:15:13-19:29
action#android.intent.action.MAIN
ADDED from /Users/hannaholukoye/AndroidGitFolder/journal-app/JournalApp/app/src/main/AndroidManifest.xml:16:17-69
	android:name
		ADDED from /Users/hannaholukoye/AndroidGitFolder/journal-app/JournalApp/app/src/main/AndroidManifest.xml:16:25-66
category#android.intent.category.LAUNCHER
ADDED from /Users/hannaholukoye/AndroidGitFolder/journal-app/JournalApp/app/src/main/AndroidManifest.xml:18:17-77
	android:name
		ADDED from /Users/hannaholukoye/AndroidGitFolder/journal-app/JournalApp/app/src/main/AndroidManifest.xml:18:27-74
activity#com.olukoye.hannah.journalapp.ViewDiary
ADDED from /Users/hannaholukoye/AndroidGitFolder/journal-app/JournalApp/app/src/main/AndroidManifest.xml:21:9-23:15
	android:label
		ADDED from /Users/hannaholukoye/AndroidGitFolder/journal-app/JournalApp/app/src/main/AndroidManifest.xml:22:13-53
	android:name
		ADDED from /Users/hannaholukoye/AndroidGitFolder/journal-app/JournalApp/app/src/main/AndroidManifest.xml:21:19-44
activity#com.olukoye.hannah.journalapp.AddEntryActivity
ADDED from /Users/hannaholukoye/AndroidGitFolder/journal-app/JournalApp/app/src/main/AndroidManifest.xml:24:9-25:64
	android:label
		ADDED from /Users/hannaholukoye/AndroidGitFolder/journal-app/JournalApp/app/src/main/AndroidManifest.xml:25:13-52
	android:name
		ADDED from /Users/hannaholukoye/AndroidGitFolder/journal-app/JournalApp/app/src/main/AndroidManifest.xml:24:19-51
uses-sdk
INJECTED from /Users/hannaholukoye/AndroidGitFolder/journal-app/JournalApp/app/src/main/AndroidManifest.xml reason: use-sdk injection requested
INJECTED from /Users/hannaholukoye/AndroidGitFolder/journal-app/JournalApp/app/src/main/AndroidManifest.xml
INJECTED from /Users/hannaholukoye/AndroidGitFolder/journal-app/JournalApp/app/src/main/AndroidManifest.xml
MERGED from [com.android.support:design:27.1.1] /Users/hannaholukoye/.gradle/caches/transforms-1/files-1.1/design-27.1.1.aar/abc849a0845a1200f0300b1afb2017ac/AndroidManifest.xml:20:5-44
MERGED from [com.android.support:design:27.1.1] /Users/hannaholukoye/.gradle/caches/transforms-1/files-1.1/design-27.1.1.aar/abc849a0845a1200f0300b1afb2017ac/AndroidManifest.xml:20:5-44
MERGED from [com.android.support:appcompat-v7:27.1.1] /Users/hannaholukoye/.gradle/caches/transforms-1/files-1.1/appcompat-v7-27.1.1.aar/a3ad55ddf1bf5b467182121755991b4d/AndroidManifest.xml:20:5-44
MERGED from [com.android.support:appcompat-v7:27.1.1] /Users/hannaholukoye/.gradle/caches/transforms-1/files-1.1/appcompat-v7-27.1.1.aar/a3ad55ddf1bf5b467182121755991b4d/AndroidManifest.xml:20:5-44
MERGED from [com.android.support.constraint:constraint-layout:1.1.2] /Users/hannaholukoye/.gradle/caches/transforms-1/files-1.1/constraint-layout-1.1.2.aar/b9adf07b00a76261fd80413463c437eb/AndroidManifest.xml:5:5-7:41
MERGED from [com.android.support.constraint:constraint-layout:1.1.2] /Users/hannaholukoye/.gradle/caches/transforms-1/files-1.1/constraint-layout-1.1.2.aar/b9adf07b00a76261fd80413463c437eb/AndroidManifest.xml:5:5-7:41
MERGED from [com.google.android.gms:play-services-auth:15.0.1] /Users/hannaholukoye/.gradle/caches/transforms-1/files-1.1/play-services-auth-15.0.1.aar/01fb7e9460f138a0766b3b42a62e0573/AndroidManifest.xml:20:5-44
MERGED from [com.google.android.gms:play-services-auth:15.0.1] /Users/hannaholukoye/.gradle/caches/transforms-1/files-1.1/play-services-auth-15.0.1.aar/01fb7e9460f138a0766b3b42a62e0573/AndroidManifest.xml:20:5-44
MERGED from [com.google.firebase:firebase-firestore:17.0.1] /Users/hannaholukoye/.gradle/caches/transforms-1/files-1.1/firebase-firestore-17.0.1.aar/dbab6afe60eb9064e9cd480b0d862733/AndroidManifest.xml:6:5-8:41
MERGED from [com.google.firebase:firebase-firestore:17.0.1] /Users/hannaholukoye/.gradle/caches/transforms-1/files-1.1/firebase-firestore-17.0.1.aar/dbab6afe60eb9064e9cd480b0d862733/AndroidManifest.xml:6:5-8:41
MERGED from [com.google.android.gms:play-services-auth-api-phone:15.0.1] /Users/hannaholukoye/.gradle/caches/transforms-1/files-1.1/play-services-auth-api-phone-15.0.1.aar/55c1afdcd69ba3790050b9e9cec3944b/AndroidManifest.xml:5:5-44
MERGED from [com.google.android.gms:play-services-auth-api-phone:15.0.1] /Users/hannaholukoye/.gradle/caches/transforms-1/files-1.1/play-services-auth-api-phone-15.0.1.aar/55c1afdcd69ba3790050b9e9cec3944b/AndroidManifest.xml:5:5-44
MERGED from [com.google.android.gms:play-services-auth-base:15.0.1] /Users/hannaholukoye/.gradle/caches/transforms-1/files-1.1/play-services-auth-base-15.0.1.aar/a54227fae5572977270e86a0437ea0a0/AndroidManifest.xml:5:5-44
MERGED from [com.google.android.gms:play-services-auth-base:15.0.1] /Users/hannaholukoye/.gradle/caches/transforms-1/files-1.1/play-services-auth-base-15.0.1.aar/a54227fae5572977270e86a0437ea0a0/AndroidManifest.xml:5:5-44
MERGED from [com.google.android.gms:play-services-base:15.0.1] /Users/hannaholukoye/.gradle/caches/transforms-1/files-1.1/play-services-base-15.0.1.aar/37f6cef7684790416f0e5321234b1636/AndroidManifest.xml:20:5-44
MERGED from [com.google.android.gms:play-services-base:15.0.1] /Users/hannaholukoye/.gradle/caches/transforms-1/files-1.1/play-services-base-15.0.1.aar/37f6cef7684790416f0e5321234b1636/AndroidManifest.xml:20:5-44
MERGED from [com.google.firebase:firebase-common:16.0.0] /Users/hannaholukoye/.gradle/caches/transforms-1/files-1.1/firebase-common-16.0.0.aar/1179f566e3cf3d47cd465b885a569d5e/AndroidManifest.xml:5:5-6:37
MERGED from [com.google.firebase:firebase-common:16.0.0] /Users/hannaholukoye/.gradle/caches/transforms-1/files-1.1/firebase-common-16.0.0.aar/1179f566e3cf3d47cd465b885a569d5e/AndroidManifest.xml:5:5-6:37
MERGED from [com.google.android.gms:play-services-tasks:15.0.1] /Users/hannaholukoye/.gradle/caches/transforms-1/files-1.1/play-services-tasks-15.0.1.aar/a7fd578660e927f669bfffc0765d127f/AndroidManifest.xml:5:5-44
MERGED from [com.google.android.gms:play-services-tasks:15.0.1] /Users/hannaholukoye/.gradle/caches/transforms-1/files-1.1/play-services-tasks-15.0.1.aar/a7fd578660e927f669bfffc0765d127f/AndroidManifest.xml:5:5-44
MERGED from [com.google.firebase:firebase-database-collection:15.0.1] /Users/hannaholukoye/.gradle/caches/transforms-1/files-1.1/firebase-database-collection-15.0.1.aar/e511fdde335e57aa2e9db8dfa468ec21/AndroidManifest.xml:6:5-44
MERGED from [com.google.firebase:firebase-database-collection:15.0.1] /Users/hannaholukoye/.gradle/caches/transforms-1/files-1.1/firebase-database-collection-15.0.1.aar/e511fdde335e57aa2e9db8dfa468ec21/AndroidManifest.xml:6:5-44
MERGED from [com.google.android.gms:play-services-basement:15.0.1] /Users/hannaholukoye/.gradle/caches/transforms-1/files-1.1/play-services-basement-15.0.1.aar/d15cb4ab4d7a4eef55c2d15eb031e277/AndroidManifest.xml:20:5-44
MERGED from [com.google.android.gms:play-services-basement:15.0.1] /Users/hannaholukoye/.gradle/caches/transforms-1/files-1.1/play-services-basement-15.0.1.aar/d15cb4ab4d7a4eef55c2d15eb031e277/AndroidManifest.xml:20:5-44
MERGED from [com.android.support:support-v4:27.1.1] /Users/hannaholukoye/.gradle/caches/transforms-1/files-1.1/support-v4-27.1.1.aar/b8f6f5fa3f792d53968ef9decb79d3dc/AndroidManifest.xml:20:5-44
MERGED from [com.android.support:support-v4:27.1.1] /Users/hannaholukoye/.gradle/caches/transforms-1/files-1.1/support-v4-27.1.1.aar/b8f6f5fa3f792d53968ef9decb79d3dc/AndroidManifest.xml:20:5-44
MERGED from [com.android.support:support-media-compat:27.1.1] /Users/hannaholukoye/.gradle/caches/transforms-1/files-1.1/support-media-compat-27.1.1.aar/5c80d8d92c819e3ab3a5d6374b8e74fa/AndroidManifest.xml:20:5-44
MERGED from [com.android.support:support-media-compat:27.1.1] /Users/hannaholukoye/.gradle/caches/transforms-1/files-1.1/support-media-compat-27.1.1.aar/5c80d8d92c819e3ab3a5d6374b8e74fa/AndroidManifest.xml:20:5-44
MERGED from [com.android.support:recyclerview-v7:27.1.1] /Users/hannaholukoye/.gradle/caches/transforms-1/files-1.1/recyclerview-v7-27.1.1.aar/5ded74659427b5b602629b118d0b82dd/AndroidManifest.xml:20:5-44
MERGED from [com.android.support:recyclerview-v7:27.1.1] /Users/hannaholukoye/.gradle/caches/transforms-1/files-1.1/recyclerview-v7-27.1.1.aar/5ded74659427b5b602629b118d0b82dd/AndroidManifest.xml:20:5-44
MERGED from [android.arch.persistence.room:runtime:1.0.0] /Users/hannaholukoye/.gradle/caches/transforms-1/files-1.1/runtime-1.0.0.aar/2ef8ee17a43daaf312b9f7af505930ff/AndroidManifest.xml:20:5-22:41
MERGED from [android.arch.persistence.room:runtime:1.0.0] /Users/hannaholukoye/.gradle/caches/transforms-1/files-1.1/runtime-1.0.0.aar/2ef8ee17a43daaf312b9f7af505930ff/AndroidManifest.xml:20:5-22:41
MERGED from [android.arch.lifecycle:extensions:1.1.0] /Users/hannaholukoye/.gradle/caches/transforms-1/files-1.1/extensions-1.1.0.aar/48736175c2002a94417b673432833f08/AndroidManifest.xml:20:5-44
MERGED from [android.arch.lifecycle:extensions:1.1.0] /Users/hannaholukoye/.gradle/caches/transforms-1/files-1.1/extensions-1.1.0.aar/48736175c2002a94417b673432833f08/AndroidManifest.xml:20:5-44
MERGED from [com.android.support:animated-vector-drawable:27.1.1] /Users/hannaholukoye/.gradle/caches/transforms-1/files-1.1/animated-vector-drawable-27.1.1.aar/8b5b66ed78a766b4b8de74a626c2c8b5/AndroidManifest.xml:20:5-44
MERGED from [com.android.support:animated-vector-drawable:27.1.1] /Users/hannaholukoye/.gradle/caches/transforms-1/files-1.1/animated-vector-drawable-27.1.1.aar/8b5b66ed78a766b4b8de74a626c2c8b5/AndroidManifest.xml:20:5-44
MERGED from [com.android.support:support-vector-drawable:27.1.1] /Users/hannaholukoye/.gradle/caches/transforms-1/files-1.1/support-vector-drawable-27.1.1.aar/9de18deab501a2e37c88186c3a1d3e0e/AndroidManifest.xml:20:5-44
MERGED from [com.android.support:support-vector-drawable:27.1.1] /Users/hannaholukoye/.gradle/caches/transforms-1/files-1.1/support-vector-drawable-27.1.1.aar/9de18deab501a2e37c88186c3a1d3e0e/AndroidManifest.xml:20:5-44
MERGED from [com.android.support:support-fragment:27.1.1] /Users/hannaholukoye/.gradle/caches/transforms-1/files-1.1/support-fragment-27.1.1.aar/43ff8bcdfc4c5b69a7f11571c6d7639f/AndroidManifest.xml:20:5-44
MERGED from [com.android.support:support-fragment:27.1.1] /Users/hannaholukoye/.gradle/caches/transforms-1/files-1.1/support-fragment-27.1.1.aar/43ff8bcdfc4c5b69a7f11571c6d7639f/AndroidManifest.xml:20:5-44
MERGED from [com.android.support:support-core-ui:27.1.1] /Users/hannaholukoye/.gradle/caches/transforms-1/files-1.1/support-core-ui-27.1.1.aar/dd21a357017af84dae4b1051fd59f738/AndroidManifest.xml:20:5-44
MERGED from [com.android.support:support-core-ui:27.1.1] /Users/hannaholukoye/.gradle/caches/transforms-1/files-1.1/support-core-ui-27.1.1.aar/dd21a357017af84dae4b1051fd59f738/AndroidManifest.xml:20:5-44
MERGED from [com.android.support:transition:27.1.1] /Users/hannaholukoye/.gradle/caches/transforms-1/files-1.1/transition-27.1.1.aar/8e8a3734b71e6d8a724813bcf16c8c41/AndroidManifest.xml:20:5-44
MERGED from [com.android.support:transition:27.1.1] /Users/hannaholukoye/.gradle/caches/transforms-1/files-1.1/transition-27.1.1.aar/8e8a3734b71e6d8a724813bcf16c8c41/AndroidManifest.xml:20:5-44
MERGED from [com.android.support:support-core-utils:27.1.1] /Users/hannaholukoye/.gradle/caches/transforms-1/files-1.1/support-core-utils-27.1.1.aar/b62deb47744dd5840a9c1449109a3bb5/AndroidManifest.xml:20:5-44
MERGED from [com.android.support:support-core-utils:27.1.1] /Users/hannaholukoye/.gradle/caches/transforms-1/files-1.1/support-core-utils-27.1.1.aar/b62deb47744dd5840a9c1449109a3bb5/AndroidManifest.xml:20:5-44
MERGED from [com.android.support:support-compat:27.1.1] /Users/hannaholukoye/.gradle/caches/transforms-1/files-1.1/support-compat-27.1.1.aar/6a9baa13b8ffa14cff370b2e7830f86a/AndroidManifest.xml:20:5-44
MERGED from [com.android.support:support-compat:27.1.1] /Users/hannaholukoye/.gradle/caches/transforms-1/files-1.1/support-compat-27.1.1.aar/6a9baa13b8ffa14cff370b2e7830f86a/AndroidManifest.xml:20:5-44
MERGED from [android.arch.persistence:db-framework:1.0.0] /Users/hannaholukoye/.gradle/caches/transforms-1/files-1.1/db-framework-1.0.0.aar/fa735d58da5678e1059cd5b2e2f33b9d/AndroidManifest.xml:20:5-22:41
MERGED from [android.arch.persistence:db-framework:1.0.0] /Users/hannaholukoye/.gradle/caches/transforms-1/files-1.1/db-framework-1.0.0.aar/fa735d58da5678e1059cd5b2e2f33b9d/AndroidManifest.xml:20:5-22:41
MERGED from [android.arch.persistence:db:1.0.0] /Users/hannaholukoye/.gradle/caches/transforms-1/files-1.1/db-1.0.0.aar/d88aa5de5d297a223960e7874b838247/AndroidManifest.xml:20:5-22:41
MERGED from [android.arch.persistence:db:1.0.0] /Users/hannaholukoye/.gradle/caches/transforms-1/files-1.1/db-1.0.0.aar/d88aa5de5d297a223960e7874b838247/AndroidManifest.xml:20:5-22:41
MERGED from [android.arch.lifecycle:livedata:1.1.0] /Users/hannaholukoye/.gradle/caches/transforms-1/files-1.1/livedata-1.1.0.aar/6b92ba74bd680bd159c20492fe4aceb0/AndroidManifest.xml:20:5-44
MERGED from [android.arch.lifecycle:livedata:1.1.0] /Users/hannaholukoye/.gradle/caches/transforms-1/files-1.1/livedata-1.1.0.aar/6b92ba74bd680bd159c20492fe4aceb0/AndroidManifest.xml:20:5-44
MERGED from [android.arch.lifecycle:livedata-core:1.1.0] /Users/hannaholukoye/.gradle/caches/transforms-1/files-1.1/livedata-core-1.1.0.aar/0e1d54864e5940583fbc5d6ab5de288b/AndroidManifest.xml:20:5-44
MERGED from [android.arch.lifecycle:livedata-core:1.1.0] /Users/hannaholukoye/.gradle/caches/transforms-1/files-1.1/livedata-core-1.1.0.aar/0e1d54864e5940583fbc5d6ab5de288b/AndroidManifest.xml:20:5-44
MERGED from [android.arch.lifecycle:runtime:1.1.0] /Users/hannaholukoye/.gradle/caches/transforms-1/files-1.1/runtime-1.1.0.aar/f0f91a69991e2528f69db7253b38d165/AndroidManifest.xml:20:5-44
MERGED from [android.arch.lifecycle:runtime:1.1.0] /Users/hannaholukoye/.gradle/caches/transforms-1/files-1.1/runtime-1.1.0.aar/f0f91a69991e2528f69db7253b38d165/AndroidManifest.xml:20:5-44
MERGED from [android.arch.core:runtime:1.1.0] /Users/hannaholukoye/.gradle/caches/transforms-1/files-1.1/runtime-1.1.0.aar/83262017bb8fa109aee5c825e6f4b26a/AndroidManifest.xml:20:5-44
MERGED from [android.arch.core:runtime:1.1.0] /Users/hannaholukoye/.gradle/caches/transforms-1/files-1.1/runtime-1.1.0.aar/83262017bb8fa109aee5c825e6f4b26a/AndroidManifest.xml:20:5-44
MERGED from [android.arch.lifecycle:viewmodel:1.1.0] /Users/hannaholukoye/.gradle/caches/transforms-1/files-1.1/viewmodel-1.1.0.aar/e15183b4c5ff99fc0dbd56dd1fc8e555/AndroidManifest.xml:20:5-44
MERGED from [android.arch.lifecycle:viewmodel:1.1.0] /Users/hannaholukoye/.gradle/caches/transforms-1/files-1.1/viewmodel-1.1.0.aar/e15183b4c5ff99fc0dbd56dd1fc8e555/AndroidManifest.xml:20:5-44
MERGED from [com.google.firebase:protolite-well-known-types:15.0.0] /Users/hannaholukoye/.gradle/caches/transforms-1/files-1.1/protolite-well-known-types-15.0.0.aar/6c5c25843b67447235d5fdd522d17cf4/AndroidManifest.xml:7:5-9:41
MERGED from [com.google.firebase:protolite-well-known-types:15.0.0] /Users/hannaholukoye/.gradle/caches/transforms-1/files-1.1/protolite-well-known-types-15.0.0.aar/6c5c25843b67447235d5fdd522d17cf4/AndroidManifest.xml:7:5-9:41
INJECTED from /Users/hannaholukoye/AndroidGitFolder/journal-app/JournalApp/app/src/main/AndroidManifest.xml
INJECTED from /Users/hannaholukoye/AndroidGitFolder/journal-app/JournalApp/app/src/main/AndroidManifest.xml
	android:targetSdkVersion
		INJECTED from /Users/hannaholukoye/AndroidGitFolder/journal-app/JournalApp/app/src/main/AndroidManifest.xml
		ADDED from /Users/hannaholukoye/AndroidGitFolder/journal-app/JournalApp/app/src/main/AndroidManifest.xml
		INJECTED from /Users/hannaholukoye/AndroidGitFolder/journal-app/JournalApp/app/src/main/AndroidManifest.xml
	android:minSdkVersion
		INJECTED from /Users/hannaholukoye/AndroidGitFolder/journal-app/JournalApp/app/src/main/AndroidManifest.xml
		ADDED from /Users/hannaholukoye/AndroidGitFolder/journal-app/JournalApp/app/src/main/AndroidManifest.xml
		INJECTED from /Users/hannaholukoye/AndroidGitFolder/journal-app/JournalApp/app/src/main/AndroidManifest.xml
activity#com.google.android.gms.auth.api.signin.internal.SignInHubActivity
ADDED from [com.google.android.gms:play-services-auth:15.0.1] /Users/hannaholukoye/.gradle/caches/transforms-1/files-1.1/play-services-auth-15.0.1.aar/01fb7e9460f138a0766b3b42a62e0573/AndroidManifest.xml:23:9-27:75
	android:excludeFromRecents
		ADDED from [com.google.android.gms:play-services-auth:15.0.1] /Users/hannaholukoye/.gradle/caches/transforms-1/files-1.1/play-services-auth-15.0.1.aar/01fb7e9460f138a0766b3b42a62e0573/AndroidManifest.xml:25:13-46
	android:exported
		ADDED from [com.google.android.gms:play-services-auth:15.0.1] /Users/hannaholukoye/.gradle/caches/transforms-1/files-1.1/play-services-auth-15.0.1.aar/01fb7e9460f138a0766b3b42a62e0573/AndroidManifest.xml:26:13-37
	android:theme
		ADDED from [com.google.android.gms:play-services-auth:15.0.1] /Users/hannaholukoye/.gradle/caches/transforms-1/files-1.1/play-services-auth-15.0.1.aar/01fb7e9460f138a0766b3b42a62e0573/AndroidManifest.xml:27:13-72
	android:name
		ADDED from [com.google.android.gms:play-services-auth:15.0.1] /Users/hannaholukoye/.gradle/caches/transforms-1/files-1.1/play-services-auth-15.0.1.aar/01fb7e9460f138a0766b3b42a62e0573/AndroidManifest.xml:24:13-93
service#com.google.android.gms.auth.api.signin.RevocationBoundService
ADDED from [com.google.android.gms:play-services-auth:15.0.1] /Users/hannaholukoye/.gradle/caches/transforms-1/files-1.1/play-services-auth-15.0.1.aar/01fb7e9460f138a0766b3b42a62e0573/AndroidManifest.xml:33:9-36:110
	android:exported
		ADDED from [com.google.android.gms:play-services-auth:15.0.1] /Users/hannaholukoye/.gradle/caches/transforms-1/files-1.1/play-services-auth-15.0.1.aar/01fb7e9460f138a0766b3b42a62e0573/AndroidManifest.xml:35:13-36
	android:permission
		ADDED from [com.google.android.gms:play-services-auth:15.0.1] /Users/hannaholukoye/.gradle/caches/transforms-1/files-1.1/play-services-auth-15.0.1.aar/01fb7e9460f138a0766b3b42a62e0573/AndroidManifest.xml:36:13-107
	android:name
		ADDED from [com.google.android.gms:play-services-auth:15.0.1] /Users/hannaholukoye/.gradle/caches/transforms-1/files-1.1/play-services-auth-15.0.1.aar/01fb7e9460f138a0766b3b42a62e0573/AndroidManifest.xml:34:13-89
activity#com.google.android.gms.common.api.GoogleApiActivity
ADDED from [com.google.android.gms:play-services-base:15.0.1] /Users/hannaholukoye/.gradle/caches/transforms-1/files-1.1/play-services-base-15.0.1.aar/37f6cef7684790416f0e5321234b1636/AndroidManifest.xml:23:9-26:75
	android:exported
		ADDED from [com.google.android.gms:play-services-base:15.0.1] /Users/hannaholukoye/.gradle/caches/transforms-1/files-1.1/play-services-base-15.0.1.aar/37f6cef7684790416f0e5321234b1636/AndroidManifest.xml:25:13-37
	android:theme
		ADDED from [com.google.android.gms:play-services-base:15.0.1] /Users/hannaholukoye/.gradle/caches/transforms-1/files-1.1/play-services-base-15.0.1.aar/37f6cef7684790416f0e5321234b1636/AndroidManifest.xml:26:13-72
	android:name
		ADDED from [com.google.android.gms:play-services-base:15.0.1] /Users/hannaholukoye/.gradle/caches/transforms-1/files-1.1/play-services-base-15.0.1.aar/37f6cef7684790416f0e5321234b1636/AndroidManifest.xml:24:13-79
provider#com.google.firebase.provider.FirebaseInitProvider
ADDED from [com.google.firebase:firebase-common:16.0.0] /Users/hannaholukoye/.gradle/caches/transforms-1/files-1.1/firebase-common-16.0.0.aar/1179f566e3cf3d47cd465b885a569d5e/AndroidManifest.xml:9:9-13:39
	android:authorities
		ADDED from [com.google.firebase:firebase-common:16.0.0] /Users/hannaholukoye/.gradle/caches/transforms-1/files-1.1/firebase-common-16.0.0.aar/1179f566e3cf3d47cd465b885a569d5e/AndroidManifest.xml:11:13-72
	android:exported
		ADDED from [com.google.firebase:firebase-common:16.0.0] /Users/hannaholukoye/.gradle/caches/transforms-1/files-1.1/firebase-common-16.0.0.aar/1179f566e3cf3d47cd465b885a569d5e/AndroidManifest.xml:12:13-37
	android:initOrder
		ADDED from [com.google.firebase:firebase-common:16.0.0] /Users/hannaholukoye/.gradle/caches/transforms-1/files-1.1/firebase-common-16.0.0.aar/1179f566e3cf3d47cd465b885a569d5e/AndroidManifest.xml:13:13-36
	android:name
		ADDED from [com.google.firebase:firebase-common:16.0.0] /Users/hannaholukoye/.gradle/caches/transforms-1/files-1.1/firebase-common-16.0.0.aar/1179f566e3cf3d47cd465b885a569d5e/AndroidManifest.xml:10:13-77
meta-data#com.google.android.gms.version
ADDED from [com.google.android.gms:play-services-basement:15.0.1] /Users/hannaholukoye/.gradle/caches/transforms-1/files-1.1/play-services-basement-15.0.1.aar/d15cb4ab4d7a4eef55c2d15eb031e277/AndroidManifest.xml:23:9-25:69
	android:value
		ADDED from [com.google.android.gms:play-services-basement:15.0.1] /Users/hannaholukoye/.gradle/caches/transforms-1/files-1.1/play-services-basement-15.0.1.aar/d15cb4ab4d7a4eef55c2d15eb031e277/AndroidManifest.xml:25:13-66
	android:name
		ADDED from [com.google.android.gms:play-services-basement:15.0.1] /Users/hannaholukoye/.gradle/caches/transforms-1/files-1.1/play-services-basement-15.0.1.aar/d15cb4ab4d7a4eef55c2d15eb031e277/AndroidManifest.xml:24:13-58
provider#android.arch.lifecycle.ProcessLifecycleOwnerInitializer
ADDED from [android.arch.lifecycle:extensions:1.1.0] /Users/hannaholukoye/.gradle/caches/transforms-1/files-1.1/extensions-1.1.0.aar/48736175c2002a94417b673432833f08/AndroidManifest.xml:23:9-27:43
	android:authorities
		ADDED from [android.arch.lifecycle:extensions:1.1.0] /Users/hannaholukoye/.gradle/caches/transforms-1/files-1.1/extensions-1.1.0.aar/48736175c2002a94417b673432833f08/AndroidManifest.xml:25:13-68
	android:multiprocess
		ADDED from [android.arch.lifecycle:extensions:1.1.0] /Users/hannaholukoye/.gradle/caches/transforms-1/files-1.1/extensions-1.1.0.aar/48736175c2002a94417b673432833f08/AndroidManifest.xml:27:13-40
	android:exported
		ADDED from [android.arch.lifecycle:extensions:1.1.0] /Users/hannaholukoye/.gradle/caches/transforms-1/files-1.1/extensions-1.1.0.aar/48736175c2002a94417b673432833f08/AndroidManifest.xml:26:13-37
	android:name
		ADDED from [android.arch.lifecycle:extensions:1.1.0] /Users/hannaholukoye/.gradle/caches/transforms-1/files-1.1/extensions-1.1.0.aar/48736175c2002a94417b673432833f08/AndroidManifest.xml:24:13-83
